M48
;Layer_Color=9474304
;FILE_FORMAT=2:5
INCH,TZ
;TYPE=PLATED
T2F00S00C0.02362
;TYPE=NON_PLATED
%
G90
G05
T02
G00X326142Y12520
M15
G01X322205
M16
G00X348228Y12520
M15
G01X342323
M16
G00X348228Y46535
M15
G01X342323
M16
G00X326142Y46535
M15
G01X322205
M16
M17
M30
